{
  "stats": {
    "total": 36,
    "perPage": 25,
    "page": 1,
    "lastPage": 2
  },
  "items": [
    {
      "personId": "13546-09P",
      "personName": "Oren Etzioni Ph.D",
      "firmId": "108783-64"
    },
    {
      "personId": "13681-18P",
      "personName": "Brooke Seawell",
      "firmId": "44506-99"
    },
    {
      "personId": "13734-28P",
      "personName": "Victor Chang",
      "firmId": "44506-99"
    },
    {
      "personId": "13917-34P",
      "personName": "Thomas Huseby",
      "firmId": "53838-01"
    },
    {
      "personId": "35642-71P",
      "personName": "Thomas Walker",
      "firmId": "44506-99"
    },
    {
      "personId": "35642-98P",
      "personName": "Patrick Hanrahan",
      "firmId": "44506-99"
    },
    {
      "personId": "35643-16P",
      "personName": "Chris Stolte Ph.D",
      "firmId": "44506-99"
    },
    {
      "personId": "43003-27P",
      "personName": "Kartheepan Madasamy",
      "firmId": "229270-06"
    },
    {
      "personId": "47668-78P",
      "personName": "Omri Mor",
      "firmId": "56311-12"
    },
    {
      "personId": "49129-93P",
      "personName": "Daniel Jewett",
      "firmId": "44506-99"
    },
    {
      "personId": "49378-51P",
      "personName": "Carlos Guestrin Ph.D",
      "firmId": "56927-80"
    },
    {
      "personId": "49380-67P",
      "personName": "Joseph Gonzalez Ph.D",
      "firmId": "56927-80"
    },
    {
      "personId": "52547-95P",
      "personName": "Ping Wang",
      "firmId": "56927-80"
    },
    {
      "personId": "52549-03P",
      "personName": "Sethu Raman",
      "firmId": "56927-80"
    },
    {
      "personId": "55078-39P",
      "personName": "Eric Lynch Ph.D",
      "firmId": "186974-20"
    },
    {
      "personId": "56559-16P",
      "personName": "Daniel Miller",
      "firmId": "44506-99"
    },
    {
      "personId": "57065-23P",
      "personName": "Roland Freygang",
      "firmId": "44506-99"
    },
    {
      "personId": "60848-65P",
      "personName": "Danny Bickson Ph.D",
      "firmId": "56927-80"
    },
    {
      "personId": "60849-73P",
      "personName": "Yucheng Low Ph.D",
      "firmId": "56927-80"
    },
    {
      "personId": "60850-63P",
      "personName": "Haijie Gu Ph.D",
      "firmId": "56927-80"
    },
    {
      "personId": "63325-18P",
      "personName": "Justin Myers",
      "firmId": "56311-12"
    },
    {
      "personId": "69187-24P",
      "personName": "Jacob Edelstein",
      "firmId": "434174-68"
    },
    {
      "personId": "90742-60P",
      "personName": "Colin Megill",
      "firmId": "107188-03"
    },
    {
      "personId": "90744-22P",
      "personName": "Christopher Small",
      "firmId": "107188-03"
    },
    {
      "personId": "102868-39P",
      "personName": "Neel Kishan",
      "firmId": "56927-80"
    }
  ]
}